Machine learning Models – Austin’s Data Analysis Portfolio
…
# For apparent() there is only one resample, so keep the unsummarized results
lasso_metrics_apparent <- collect_metrics(lasso_apparent_tuned, summarize = FALSE) |>
  arrange(.estimate)

lasso_metrics_apparent

# A tibble: 50 × 6
   id         penalty .metric .estimator .estimate .config         
   <chr>        <dbl> <chr>   <chr>          <dbl> <chr>           
 1 Apparent 0.00001   rmse    standard        571. pre0_mod01_post0
 2 Apparent 0.0000139 rmse    standard        571. pre0_mod02_post0
 3 Apparent 0.0000193 rmse    standard        571. pre0_mod03_post0
 4 Apparent 0.0000268 rmse    standard        571. pre0_mod04_post0
 5 Apparent 0.0000373 rmse    standard        571. pre0_mod05_post0
 6 Apparent 0.0000518 rmse    standard        571. pre0_mod06_post0
 7 Apparent 0.0000720 rmse    standard        571. pre0_mod07_post0
 8 Apparent 0.0001    rmse    standard        571. pre0_mod08_post0
 9 Apparent 0.000139  rmse    standard        571. pre0_mod09_post0
10 Apparent 0.000193  rmse    standard        571. pre0_mod10_post0
# ℹ 40 more rows
…
rf_apparent_tuned <- tune_grid(
  rf_tune_wf,
  resamples = apparent_resamples,
  grid = rf_grid,
  metrics = metric_set(rmse),
  control = control_grid(save_pred = TRUE)
)

rf_metrics_apparent <- collect_metrics(rf_apparent_tuned, summarize = FALSE) |>
  arrange(.estimate)

rf_metrics_apparent

# A tibble: 49 × 7
   id        mtry min_n .metric .estimator .estimate .config         
   <chr>    <int> <int> <chr>   <chr>          <dbl> <chr>           
 1 Apparent     6     1 rmse    standard        254. pre0_mod36_post0
 2 Apparent     4     1 rmse    standard        256. pre0_mod22_post0
 3 Apparent     7     1 rmse    standard        256. pre0_mod43_post0
 4 Apparent     5     1 rmse    standard        257. pre0_mod29_post0
 5 Apparent     3     1 rmse    standard        260. pre0_mod15_post0
 6 Apparent     7     4 rmse    standard        286. pre0_mod44_post0
 7 Apparent     6     4 rmse    standard        288. pre0_mod37_post0
 8 Apparent     2     1 rmse    standard        289. pre0_mod08_post0
 9 Apparent     5     4 rmse    standard        292. pre0_mod30_post0
10 Apparent     4     4 rmse    standard        297. pre0_mod23_post0
# ℹ 39 more rows
…
Proper tuning with repeated cross-validation

set.seed(rngseed)

cv_5x5 <- vfold_cv(
  analysis_df,
  v = 5,
  repeats = 5
)

cv_5x5

#  5-fold cross-validation repeated 5 times 
# A tibble: 25 × 3
   splits          id      id2  
   <list>          <chr>   <chr>
 1 <split [96/24]> Repeat1 Fold1
 2 <split [96/24]> Repeat1 Fold2
 3 <split [96/24]> Repeat1 Fold3
 4 <split [96/24]> Repeat1 Fold4
 5 <split [96/24]> Repeat1 Fold5
 6 <split [96/24]> Repeat2 Fold1
 7 <split [96/24]> Repeat2 Fold2
 8 <split [96/24]> Repeat2 Fold3
 9 <split [96/24]> Repeat2 Fold4
10 <split [96/24]> Repeat2 Fold5
# ℹ 15 more rows

Re-tune the LASSO with repeated cross-validation

lasso_cv_tuned <- tune_grid(
  lasso_tune_wf,
  resamples = cv_5x5,
  grid = lasso_grid,
  metrics = metric_set(rmse)
)

lasso_cv_tuned

# Tuning results
# 5-fold cross-validation repeated 5 times 
# A tibble: 25 × 5
   splits          id      id2   .metrics          .notes          
   <list>          <chr>   <chr> <list>            <list>          
 1 <split [96/24]> Repeat1 Fold1 <tibble [50 × 5]> <tibble [0 × 4]>
 2 <split [96/24]> Repeat1 Fold2 <tibble [50 × 5]> <tibble [0 × 4]>
 3 <split [96/24]> Repeat1 Fold3 <tibble [50 × 5]> <tibble [0 × 4]>
 4 <split [96/24]> Repeat1 Fold4 <tibble [50 × 5]> <tibble [0 × 4]>
 5 <split [96/24]> Repeat1 Fold5 <tibble [50 × 5]> <tibble [0 × 4]>
 6 <split [96/24]> Repeat2 Fold1 <tibble [50 × 5]> <tibble [0 × 4]>
 7 <split [96/24]> Repeat2 Fold2 <tibble [50 × 5]> <tibble [0 × 4]>
 8 <split [96/24]> Repeat2 Fold3 <tibble [50 × 5]> <tibble [0 × 4]>
 9 <split [96/24]> Repeat2 Fold4 <tibble [50 × 5]> <tibble [0 × 4]>
10 <split [96/24]> Repeat2 Fold5 <tibble [50 × 5]> <tibble [0 × 4]>
# ℹ 15 more rows
…
Re-tune the random forest with repeated cross-validation

rf_cv_tuned <- tune_grid(
  rf_tune_wf,
  resamples = cv_5x5,
  grid = rf_grid,
  metrics = metric_set(rmse)
)

rf_cv_tuned

# Tuning results
# 5-fold cross-validation repeated 5 times 
# A tibble: 25 × 5
   splits          id      id2   .metrics          .notes          
   <list>          <chr>   <chr> <list>            <list>          
 1 <split [96/24]> Repeat1 Fold1 <tibble [49 × 6]> <tibble [0 × 4]>
 2 <split [96/24]> Repeat1 Fold2 <tibble [49 × 6]> <tibble [0 × 4]>
 3 <split [96/24]> Repeat1 Fold3 <tibble [49 × 6]> <tibble [0 × 4]>
 4 <split [96/24]> Repeat1 Fold4 <tibble [49 × 6]> <tibble [0 × 4]>
 5 <split [96/24]> Repeat1 Fold5 <tibble [49 × 6]> <tibble [0 × 4]>
 6 <split [96/24]> Repeat2 Fold1 <tibble [49 × 6]> <tibble [0 × 4]>
 7 <split [96/24]> Repeat2 Fold2 <tibble [49 × 6]> <tibble [0 × 4]>
 8 <split [96/24]> Repeat2 Fold3 <tibble [49 × 6]> <tibble [0 × 4]>
 9 <split [96/24]> Repeat2 Fold4 <tibble [49 × 6]> <tibble [0 × 4]>
10 <split [96/24]> Repeat2 Fold5 <tibble [49 × 6]> <tibble [0 × 4]>
# ℹ 15 more rows
…
